{
  "/api/v1/*": "/$1",
  "/item/:id": "/items?tcin=:id",
  "/search/:keywords": "/items?q=:keywords",
  "/items/page/:page/limit/:limit": "/items?_page=:page&_limit=:limit",
  "/items/page/:page/limit/:limit/sort/featured": "/items?_page=:page&_limit=:limit",
  "/items/page/:page/limit/:limit/sort/price-low-to-high": "/items?_page=:page&_limit=:limit&_sort=price.current_retail_min&_order=asc",
  "/items/page/:page/limit/:limit/sort/price-high-to-low": "/items?_page=:page&_limit=:limit&_sort=price.current_retail_min&_order=desc",
  "/items/page/:page/limit/:limit/sort/ratings": "/items?_page=:page&_limit=:limit&_sort=average_rating&_order=asc",
  "/filter/brand/:brand": "/items?brand_like=:brand",
  "/filter/color/:color": "/items?variation_attributes.color_like=:color",
  "/filter/size/:size": "/items?variation_attributes.size_like=:size",
  "/filter/brand/:brand/color/:color": "/items?brand_like=:brand&variation_attributes.color_like=:color",
  "/filter/brand/:brand/size/:size": "/items?brand_like=:brand&variation_attributes.size_like=:size",
  "/filter/color/:color/size/:size": "/items?brand_like=:brand&variation_attributes.color_like=:color&variation_attributes.size_like=:size",
  "/filter/brand/:brand/color/:color/size/:size": "/items?brand_like=:brand&variation_attributes.color_like=:color&variation_attributes.size_like=:size",
  "/facets": "/facet_list",
  "/options/sort": "/sort_options"
}